2Curso/EC/Practica01_EC/alu.vcd
$date
	Tue Oct 22 22:48:12 2024
$end
$version
	Icarus Verilog
$end
$timescale
	10ps
$end
$scope module alu_tb $end
$var wire 1 ! t_z $end
$var wire 1 " t_s $end
$var wire 1 # t_c $end
$var wire 4 $ t_R [3:0] $end
$var reg 1 % error $end
$var reg 1 & error_R $end
$var reg 1 ' error_c $end
$var reg 1 ( error_s $end
$var reg 1 ) error_z $end
$var reg 4 * t_A [3:0] $end
$var reg 4 + t_B [3:0] $end
$var reg 3 , t_Op [2:0] $end
$var reg 1 - t_cin $end
$var integer 32 . errores [31:0] $end
$scope module mat $end
$var wire 4 / A [3:0] $end
$var wire 4 0 B [3:0] $end
$var wire 3 1 Op [2:0] $end
$var wire 1 - c_in $end
$var wire 1 ! zero $end
$var wire 4 2 ul_out [3:0] $end
$var wire 4 3 suma_out [3:0] $end
$var wire 1 " sign $end
$var wire 1 # carry $end
$var wire 4 4 R [3:0] $end
$var wire 4 5 OP2 [3:0] $end
$var wire 4 6 OP1 [3:0] $end
$scope module Cero $end
$var wire 1 ! resultado $end
$var wire 4 7 R [3:0] $end
$upscope $end
$scope module Resultado $end
$var wire 1 8 s $end
$var wire 4 9 B [3:0] $end
$var wire 4 : A [3:0] $end
$var reg 4 ; Out [3:0] $end
$upscope $end
$scope module Sign $end
$var wire 4 < R [3:0] $end
$var wire 1 " sign $end
$upscope $end
$scope module Suma $end
$var wire 1 - c_in $end
$var wire 1 = carry3 $end
$var wire 1 > carry2 $end
$var wire 1 ? carry1 $end
$var wire 1 # c_out $end
$var wire 4 @ S [3:0] $end
$var wire 4 A B [3:0] $end
$var wire 4 B A [3:0] $end
$upscope $end
$scope module UL $end
$var wire 4 C A [3:0] $end
$var wire 4 D B [3:0] $end
$var wire 2 E S [1:0] $end
$var wire 4 F Out [3:0] $end
$scope module C0 $end
$var wire 2 G S [1:0] $end
$var wire 1 H a $end
$var wire 1 I a_out $end
$var wire 1 J b $end
$var wire 1 K n_out $end
$var wire 1 L o_out $end
$var wire 1 M x_out $end
$var wire 1 N out $end
$scope module Mux $end
$var wire 2 O S [1:0] $end
$var wire 1 I a $end
$var wire 1 L b $end
$var wire 1 M c $end
$var wire 1 K d $end
$var reg 1 N out $end
$upscope $end
$upscope $end
$scope module C1 $end
$var wire 2 P S [1:0] $end
$var wire 1 Q a $end
$var wire 1 R a_out $end
$var wire 1 S b $end
$var wire 1 T n_out $end
$var wire 1 U o_out $end
$var wire 1 V x_out $end
$var wire 1 W out $end
$scope module Mux $end
$var wire 2 X S [1:0] $end
$var wire 1 R a $end
$var wire 1 U b $end
$var wire 1 V c $end
$var wire 1 T d $end
$var reg 1 W out $end
$upscope $end
$upscope $end
$scope module C2 $end
$var wire 2 Y S [1:0] $end
$var wire 1 Z a $end
$var wire 1 [ a_out $end
$var wire 1 \ b $end
$var wire 1 ] n_out $end
$var wire 1 ^ o_out $end
$var wire 1 _ x_out $end
$var wire 1 ` out $end
$scope module Mux $end
$var wire 2 a S [1:0] $end
$var wire 1 [ a $end
$var wire 1 ^ b $end
$var wire 1 _ c $end
$var wire 1 ] d $end
$var reg 1 ` out $end
$upscope $end
$upscope $end
$scope module C3 $end
$var wire 2 b S [1:0] $end
$var wire 1 c a $end
$var wire 1 d a_out $end
$var wire 1 e b $end
$var wire 1 f n_out $end
$var wire 1 g o_out $end
$var wire 1 h x_out $end
$var wire 1 i out $end
$scope module Mux $end
$var wire 2 j S [1:0] $end
$var wire 1 d a $end
$var wire 1 g b $end
$var wire 1 h c $end
$var wire 1 f d $end
$var reg 1 i out $end
$upscope $end
$upscope $end
$upscope $end
$scope module preprocesado $end
$var wire 4 k A [3:0] $end
$var wire 4 l B [3:0] $end
$var wire 3 m Op [2:0] $end
$var wire 4 n aux0 [3:0] $end
$var wire 4 o aux1 [3:0] $end
$var wire 4 p mux3_out [3:0] $end
$var wire 4 q mux2_out [3:0] $end
$var wire 4 r mux1_out [3:0] $end
$var wire 4 s comp_out [3:0] $end
$var reg 4 t AMod [3:0] $end
$var reg 4 u BMod [3:0] $end
$var reg 1 v add1 $end
$var reg 1 w cpl $end
$var reg 1 x op1_A $end
$var reg 1 y op2_B $end
$scope module Comp1 $end
$var wire 1 w cpl $end
$var wire 4 z Out [3:0] $end
$var wire 4 { Inp [3:0] $end
$upscope $end
$scope module Mux1 $end
$var wire 4 | A [3:0] $end
$var wire 4 } B [3:0] $end
$var wire 1 v s $end
$var reg 4 ~ Out [3:0] $end
$upscope $end
$scope module Mux2 $end
$var wire 4 !" A [3:0] $end
$var wire 4 "" B [3:0] $end
$var wire 1 x s $end
$var reg 4 #" Out [3:0] $end
$upscope $end
$scope module Mux3 $end
$var wire 4 $" A [3:0] $end
$var wire 4 %" B [3:0] $end
$var wire 1 y s $end
$var reg 4 &" Out [3:0] $end
$upscope $end
$upscope $end
$upscope $end
$scope task check $end
$var reg 5 '" expected_R [4:0] $end
$var reg 1 (" expected_c $end
$var reg 1 )" expected_s $end
$var reg 1 *" expected_z $end
$upscope $end
$upscope $end
$enddefinitions $end
#0
$dumpvars
x*"
x)"
x("
bx '"
b0 &"
b0 %"
b0 $"
b0 #"
b0 ""
b0 !"
b0 ~
b1 }
b0 |
b0 {
b0 z
0y
0x
0w
0v
b0 u
b0 t
b0 s
b0 r
b0 q
b0 p
b1 o
b0 n
b0 m
b0 l
b0 k
b0 j
0i
0h
0g
1f
0e
0d
0c
b0 b
b0 a
0`
0_
0^
1]
0\
0[
0Z
b0 Y
b0 X
0W
0V
0U
1T
0S
0R
0Q
b0 P
b0 O
0N
0M
0L
1K
0J
0I
0H
b0 G
b0 F
b0 E
b0 D
b0 C
b0 B
b0 A
b0 @
0?
0>
0=
b0 <
b0 ;
b0 :
b0 9
08
b0 7
b0 6
b0 5
b0 4
b0 3
b0 2
b0 1
b0 0
b0 /
b0 .
0-
b0 ,
b0 +
b0 *
x)
x(
x'
x&
x%
b0 $
0#
0"
1!
$end
#1
0%
0)
0&
1*"
0'
0(
0)"
0("
b0 '"
#1000
1L
1M
1J
b1 +
b1 0
b1 D
b1 l
b1 %"
#2000
0L
0M
1U
1V
0J
1S
b10 +
b10 0
b10 D
b10 l
b10 %"
#3000
1L
1M
1J
b11 +
b11 0
b11 D
b11 l
b11 %"
#4000
0L
0M
0U
0V
1^
1_
0J
0S
1\
b100 +
b100 0
b100 D
b100 l
b100 %"
#5000
1L
1M
1J
b101 +
b101 0
b101 D
b101 l
b101 %"
#6000
0L
0M
1U
1V
0J
1S
b110 +
b110 0
b110 D
b110 l
b110 %"
#7000
1L
1M
1J
b111 +
b111 0
b111 D
b111 l
b111 %"
#8000
0L
0M
0U
0V
0^
0_
1g
1h
0J
0S
0\
1e
b1000 +
b1000 0
b1000 D
b1000 l
b1000 %"
#9000
1L
1M
1J
b1001 +
b1001 0
b1001 D
b1001 l
b1001 %"
#10000
0L
0M
1U
1V
0J
1S
b1010 +
b1010 0
b1010 D
b1010 l
b1010 %"
#11000
1L
1M
1J
b1011 +
b1011 0
b1011 D
b1011 l
b1011 %"
#12000
0L
0M
0U
0V
1^
1_
0J
0S
1\
b1100 +
b1100 0
b1100 D
b1100 l
b1100 %"
#13000
1L
1M
1J
b1101 +
b1101 0
b1101 D
b1101 l
b1101 %"
#14000
0L
0M
1U
1V
0J
1S
b1110 +
b1110 0
b1110 D
b1110 l
b1110 %"
#15000
1L
1M
1J
b1111 +
b1111 0
b1111 D
b1111 l
b1111 %"
#16000
0!
b1 $
b1 4
b1 7
b1 ;
b1 <
b1 3
b1 :
b1 @
b1 5
b1 A
b1 u
0K
0U
0V
0^
0_
0g
0h
b1 s
b1 z
1H
0J
0S
0\
0e
b1 p
b1 {
b1 &"
b1 *
b1 /
b1 C
b1 k
b1 ""
b1 $"
b0 +
b0 0
b0 D
b0 l
b0 %"
#16001
0*"
b1 '"
#17000
b1 2
b1 9
b1 F
1N
1I
0M
1J
b1 +
b1 0
b1 D
b1 l
b1 %"
#18000
b0 2
b0 9
b0 F
0N
0I
1M
1U
1V
0J
1S
b10 +
b10 0
b10 D
b10 l
b10 %"
#19000
b1 2
b1 9
b1 F
1N
1I
0M
1J
b11 +
b11 0
b11 D
b11 l
b11 %"
#20000
b0 2
b0 9
b0 F
0N
0I
1M
0U
0V
1^
1_
0J
0S
1\
b100 +
b100 0
b100 D
b100 l
b100 %"
#21000
b1 2
b1 9
b1 F
1N
1I
0M
1J
b101 +
b101 0
b101 D
b101 l
b101 %"
#22000
b0 2
b0 9
b0 F
0N
0I
1M
1U
1V
0J
1S
b110 +
b110 0
b110 D
b110 l
b110 %"
#23000
b1 2
b1 9
b1 F
1N
1I
0M
1J
b111 +
b111 0
b111 D
b111 l
b111 %"
#24000
b0 2
b0 9
b0 F
0N
0I
1M
0U
0V
0^
0_
1g
1h
0J
0S
0\
1e
b1000 +
b1000 0
b1000 D
b1000 l
b1000 %"
#25000
b1 2
b1 9
b1 F
1N
1I
0M
1J
b1001 +
b1001 0
b1001 D
b1001 l
b1001 %"
#26000
b0 2
b0 9
b0 F
0N
0I
1M
1U
1V
0J
1S
b1010 +
b1010 0
b1010 D
b1010 l
b1010 %"
#27000
b1 2
b1 9
b1 F
1N
1I
0M
1J
b1011 +
b1011 0
b1011 D
b1011 l
b1011 %"
#28000
b0 2
b0 9
b0 F
0N
0I
1M
0U
0V
1^
1_
0J
0S
1\
b1100 +
b1100 0
b1100 D
b1100 l
b1100 %"
#29000
b1 2
b1 9
b1 F
1N
1I
0M
1J
b1101 +
b1101 0
b1101 D
b1101 l
b1101 %"
#30000
b0 2
b0 9
b0 F
0N
0I
1M
1U
1V
0J
1S
b1110 +
b1110 0
b1110 D
b1110 l
b1110 %"
#31000
b1 2
b1 9
b1 F
1N
1I
0M
1J
b1111 +
b1111 0
b1111 D
b1111 l
b1111 %"
#32000
b10 $
b10 4
b10 7
b10 ;
b10 <
b10 3
b10 :
b10 @
b0 2
b0 9
b0 F
0N
b10 5
b10 A
b10 u
1K
0T
0I
0L
0^
0_
0g
0h
b10 s
b10 z
0H
1Q
0J
0S
0\
0e
b10 p
b10 {
b10 &"
b10 *
b10 /
b10 C
b10 k
b10 ""
b10 $"
b0 +
b0 0
b0 D
b0 l
b0 %"
#32001
b10 '"
#33000
1L
1M
1J
b1 +
b1 0
b1 D
b1 l
b1 %"
#34000
b10 2
b10 9
b10 F
1W
0L
0M
1R
0V
0J
1S
b10 +
b10 0
b10 D
b10 l
b10 %"
#35000
1L
1M
1J
b11 +
b11 0
b11 D
b11 l
b11 %"
#36000
b0 2
b0 9
b0 F
0W
0L
0M
0R
1V
1^
1_
0J
0S
1\
b100 +
b100 0
b100 D
b100 l
b100 %"
#37000
1L
1M
1J
b101 +
b101 0
b101 D
b101 l
b101 %"
#38000
b10 2
b10 9
b10 F
1W
0L
0M
1R
0V
0J
1S
b110 +
b110 0
b110 D
b110 l
b110 %"
#39000
1L
1M
1J
b111 +
b111 0
b111 D
b111 l
b111 %"
#40000
b0 2
b0 9
b0 F
0W
0L
0M
0R
1V
0^
0_
1g
1h
0J
0S
0\
1e
b1000 +
b1000 0
b1000 D
b1000 l
b1000 %"
#41000
1L
1M
1J
b1001 +
b1001 0
b1001 D
b1001 l
b1001 %"
#42000
b10 2
b10 9
b10 F
1W
0L
0M
1R
0V
0J
1S
b1010 +
b1010 0
b1010 D
b1010 l
b1010 %"
#43000
1L
1M
1J
b1011 +
b1011 0
b1011 D
b1011 l
b1011 %"
#44000
b0 2
b0 9
b0 F
0W
0L
0M
0R
1V
1^
1_
0J
0S
1\
b1100 +
b1100 0
b1100 D
b1100 l
b1100 %"
#45000
1L
1M
1J
b1101 +
b1101 0
b1101 D
b1101 l
b1101 %"
#46000
b10 2
b10 9
b10 F
1W
0L
0M
1R
0V
0J
1S
b1110 +
b1110 0
b1110 D
b1110 l
b1110 %"
#47000
1L
1M
1J
b1111 +
b1111 0
b1111 D
b1111 l
b1111 %"
#48000
b11 $
b11 4
b11 7
b11 ;
b11 <
b11 3
b11 :
b11 @
b0 2
b0 9
b0 F
0W
b11 5
b11 A
b11 u
0K
0R
1V
0^
0_
0g
0h
b11 s
b11 z
1H
0J
0S
0\
0e
b11 p
b11 {
b11 &"
b11 *
b11 /
b11 C
b11 k
b11 ""
b11 $"
b0 +
b0 0
b0 D
b0 l
b0 %"
#48001
b11 '"
#49000
b1 2
b1 9
b1 F
1N
1I
0M
1J
b1 +
b1 0
b1 D
b1 l
b1 %"
#50000
0N
b10 2
b10 9
b10 F
1W
0I
1M
1R
0V
0J
1S
b10 +
b10 0
b10 D
b10 l
b10 %"
#51000
b11 2
b11 9
b11 F
1N
1I
0M
1J
b11 +
b11 0
b11 D
b11 l
b11 %"
#52000
0N
b0 2
b0 9
b0 F
0W
0I
1M
0R
1V
1^
1_
0J
0S
1\
b100 +
b100 0
b100 D
b100 l
b100 %"
#53000
b1 2
b1 9
b1 F
1N
1I
0M
1J
b101 +
b101 0
b101 D
b101 l
b101 %"
#54000
0N
b10 2
b10 9
b10 F
1W
0I
1M
1R
0V
0J
1S
b110 +
b110 0
b110 D
b110 l
b110 %"
#55000
b11 2
b11 9
b11 F
1N
1I
0M
1J
b111 +
b111 0
b111 D
b111 l
b111 %"
#56000
0N
b0 2
b0 9
b0 F
0W
0I
1M
0R
1V
0^
0_
1g
1h
0J
0S
0\
1e
b1000 +
b1000 0
b1000 D
b1000 l
b1000 %"
#57000
b1 2
b1 9
b1 F
1N
1I
0M
1J
b1001 +
b1001 0
b1001 D
b1001 l
b1001 %"
#58000
0N
b10 2
b10 9
b10 F
1W
0I
1M
1R
0V
0J
1S
b1010 +
b1010 0
b1010 D
b1010 l
b1010 %"
#59000
b11 2
b11 9
b11 F
1N
1I
0M
1J
b1011 +
b1011 0
b1011 D
b1011 l
b1011 %"
#60000
0N
b0 2
b0 9
b0 F
0W
0I
1M
0R
1V
1^
1_
0J
0S
1\
b1100 +
b1100 0
b1100 D
b1100 l
b1100 %"
#61000
b1 2
b1 9
b1 F
1N
1I
0M
1J
b1101 +
b1101 0
b1101 D
b1101 l
b1101 %"
#62000
0N
b10 2
b10 9
b10 F
1W
0I
1M
1R
0V
0J
1S
b1110 +
b1110 0
b1110 D
b1110 l
b1110 %"
#63000
b11 2
b11 9
b11 F
1N
1I
0M
1J
b1111 +
b1111 0
b1111 D
b1111 l
b1111 %"
#64000
b100 $
b100 4
b100 7
b100 ;
b100 <
b100 3
b100 :
b100 @
0N
b0 2
b0 9
b0 F
0W
b100 5
b100 A
b100 u
1K
1T
0]
0I
0L
0R
0U
0g
0h
b100 s
b100 z
0H
0Q
1Z
0J
0S
0\
0e
b100 p
b100 {
b100 &"
b100 *
b100 /
b100 C
b100 k
b100 ""
b100 $"
b0 +
b0 0
b0 D
b0 l
b0 %"
#64001
b100 '"
#65000
1L
1M
1J
b1 +
b1 0
b1 D
b1 l
b1 %"
#66000
0L
0M
1U
1V
0J
1S
b10 +
b10 0
b10 D
b10 l
b10 %"
#67000
1L
1M
1J
b11 +
b11 0
b11 D
b11 l
b11 %"
#68000
b100 2
b100 9
b100 F
1`
0L
0M
0U
0V
1[
0_
0J
0S
1\
b100 +
b100 0
b100 D
b100 l
b100 %"
#69000
1L
1M
1J
b101 +
b101 0
b101 D
b101 l
b101 %"
#70000
0L
0M
1U
1V
0J
1S
b110 +
b110 0
b110 D
b110 l
b110 %"
#71000
1L
1M
1J
b111 +
b111 0
b111 D
b111 l
b111 %"
#72000
b0 2
b0 9
b0 F
0`
0L
0M
0U
0V
0[
1_
1g
1h
0J
0S
0\
1e
b1000 +
b1000 0
b1000 D
b1000 l
b1000 %"
#73000
1L
1M
1J
b1001 +
b1001 0
b1001 D
b1001 l
b1001 %"
#74000
0L
0M
1U
1V
0J
1S
b1010 +
b1010 0
b1010 D
b1010 l
b1010 %"
#75000
1L
1M
1J
b1011 +
b1011 0
b1011 D
b1011 l
b1011 %"
#76000
b100 2
b100 9
b100 F
1`
0L
0M
0U
0V
1[
0_
0J
0S
1\
b1100 +
b1100 0
b1100 D
b1100 l
b1100 %"
#77000
1L
1M
1J
b1101 +
b1101 0
b1101 D
b1101 l
b1101 %"
#78000
0L
0M
1U
1V
0J
1S
b1110 +
b1110 0
b1110 D
b1110 l
b1110 %"
#79000
1L
1M
1J
b1111 +
b1111 0
b1111 D
b1111 l
b1111 %"
#80000
b101 $
b101 4
b101 7
b101 ;
b101 <
b101 3
b101 :
b101 @
b0 2
b0 9
b0 F
0`
b101 5
b101 A
b101 u
0K
0U
0V
0[
1_
0g
0h
b101 s
b101 z
1H
0J
0S
0\
0e
b101 p
b101 {
b101 &"
b101 *
b101 /
b101 C
b101 k
b101 ""
b101 $"
b0 +
b0 0
b0 D
b0 l
b0 %"
#80001
b101 '"
#81000
b1 2
b1 9
b1 F
1N
1I
0M
1J
b1 +
b1 0
b1 D
b1 l
b1 %"
#82000
b0 2
b0 9
b0 F
0N
0I
1M
1U
1V
0J
1S
b10 +
b10 0
b10 D
b10 l
b10 %"
#83000
b1 2
b1 9
b1 F
1N
1I
0M
1J
b11 +
b11 0
b11 D
b11 l
b11 %"
#84000
0N
b100 2
b100 9
b100 F
1`
0I
1M
0U
0V
1[
0_
0J
0S
1\
b100 +
b100 0
b100 D
b100 l
b100 %"
#85000
b101 2
b101 9
b101 F
1N
1I
0M
1J
b101 +
b101 0
b101 D
b101 l
b101 %"
#86000
b100 2
b100 9
b100 F
0N
0I
1M
1U
1V
0J
1S
b110 +
b110 0
b110 D
b110 l
b110 %"
#87000
b101 2
b101 9
b101 F
1N
1I
0M
1J
b111 +
b111 0
b111 D
b111 l
b111 %"
#88000
0N
b0 2
b0 9
b0 F
0`
0I
1M
0U
0V
0[
1_
1g
1h
0J
0S
0\
1e
b1000 +
b1000 0
b1000 D
b1000 l
b1000 %"
#89000
b1 2
b1 9
b1 F
1N
1I
0M
1J
b1001 +
b1001 0
b1001 D
b1001 l
b1001 %"
#90000
b0 2
b0 9
b0 F
0N
0I
1M
1U
1V
0J
1S
b1010 +
b1010 0
b1010 D
b1010 l
b1010 %"
#91000
b1 2
b1 9
b1 F
1N
1I
0M
1J
b1011 +
b1011 0
b1011 D
b1011 l
b1011 %"
#92000
0N
b100 2
b100 9
b100 F
1`
0I
1M
0U
0V
1[
0_
0J
0S
1\
b1100 +
b1100 0
b1100 D
b1100 l
b1100 %"
#93000
b101 2
b101 9
b101 F
1N
1I
0M
1J
b1101 +
b1101 0
b1101 D
b1101 l
b1101 %"
#94000
b100 2
b100 9
b100 F
0N
0I
1M
1U
1V
0J
1S
b1110 +
b1110 0
b1110 D
b1110 l
b1110 %"
#95000
b101 2
b101 9
b101 F
1N
1I
0M
1J
b1111 +
b1111 0
b1111 D
b1111 l
b1111 %"
#96000
b110 $
b110 4
b110 7
b110 ;
b110 <
b110 3
b110 :
b110 @
0N
b0 2
b0 9
b0 F
0`
b110 5
b110 A
b110 u
1K
0T
0I
0L
0[
1_
0g
0h
b110 s
b110 z
0H
1Q
0J
0S
0\
0e
b110 p
b110 {
b110 &"
b110 *
b110 /
b110 C
b110 k
b110 ""
b110 $"
b0 +
b0 0
b0 D
b0 l
b0 %"
#96001
b110 '"
#97000
1L
1M
1J
b1 +
b1 0
b1 D
b1 l
b1 %"
#98000
b10 2
b10 9
b10 F
1W
0L
0M
1R
0V
0J
1S
b10 +
b10 0
b10 D
b10 l
b10 %"
#99000
1L
1M
1J
b11 +
b11 0
b11 D
b11 l
b11 %"
#100000
0W
b100 2
b100 9
b100 F
1`
0L
0M
0R
1V
1[
0_
0J
0S
1\
b100 +
b100 0
b100 D
b100 l
b100 %"
#101000
1L
1M
1J
b101 +
b101 0
b101 D
b101 l
b101 %"
#102000
b110 2
b110 9
b110 F
1W
0L
0M
1R
0V
0J
1S
b110 +
b110 0
b110 D
b110 l
b110 %"
#103000
1L
1M
1J
b111 +
b111 0
b111 D
b111 l
b111 %"
#104000
0W
b0 2
b0 9
b0 F
0`
0L
0M
0R
1V
0[
1_
1g
1h
0J
0S
0\
1e
b1000 +
b1000 0
b1000 D
b1000 l
b1000 %"
#105000
1L
1M
1J
b1001 +
b1001 0
b1001 D
b1001 l
b1001 %"
#106000
b10 2
b10 9
b10 F
1W
0L
0M
1R
0V
0J
1S
b1010 +
b1010 0
b1010 D
b1010 l
b1010 %"
#107000
1L
1M
1J
b1011 +
b1011 0
b1011 D
b1011 l
b1011 %"
#108000
0W
b100 2
b100 9
b100 F
1`
0L
0M
0R
1V
1[
0_
0J
0S
1\
b1100 +
b1100 0
b1100 D
b1100 l
b1100 %"
#109000
1L
1M
1J
b1101 +
b1101 0
b1101 D
b1101 l
b1101 %"
#110000
b110 2
b110 9
b110 F
1W
0L
0M
1R
0V
0J
1S
b1110 +
b1110 0
b1110 D
b1110 l
b1110 %"
#111000
1L
1M
1J
b1111 +
b1111 0
b1111 D
b1111 l
b1111 %"
#112000
b111 $
b111 4
b111 7
b111 ;
b111 <
b111 3
b111 :
b111 @
0W
b0 2
b0 9
b0 F
0`
b111 5
b111 A
b111 u
0K
0R
1V
0[
1_
0g
0h
b111 s
b111 z
1H
0J
0S
0\
0e
b111 p
b111 {
b111 &"
b111 *
b111 /
b111 C
b111 k
b111 ""
b111 $"
b0 +
b0 0
b0 D
b0 l
b0 %"
#112001
b111 '"
#113000
b1 2
b1 9
b1 F
1N
1I
0M
1J
b1 +
b1 0
b1 D
b1 l
b1 %"
#114000
0N
b10 2
b10 9
b10 F
1W
0I
1M
1R
0V
0J
1S
b10 +
b10 0
b10 D
b10 l
b10 %"
#115000
b11 2
b11 9
b11 F
1N
1I
0M
1J
b11 +
b11 0
b11 D
b11 l
b11 %"
#116000
0N
0W
b100 2
b100 9
b100 F
1`
0I
1M
0R
1V
1[
0_
0J
0S
1\
b100 +
b100 0
b100 D
b100 l
b100 %"
#117000
b101 2
b101 9
b101 F
1N
1I
0M
1J
b101 +
b101 0
b101 D
b101 l
b101 %"
#118000
0N
b110 2
b110 9
b110 F
1W
0I
1M
1R
0V
0J
1S
b110 +
b110 0
b110 D
b110 l
b110 %"
#119000
b111 2
b111 9
b111 F
1N
1I
0M
1J
b111 +
b111 0
b111 D
b111 l
b111 %"
#120000
0N
0W
b0 2
b0 9
b0 F
0`
0I
1M
0R
1V
0[
1_
1g
1h
0J
0S
0\
1e
b1000 +
b1000 0
b1000 D
b1000 l
b1000 %"
#121000
b1 2
b1 9
b1 F
1N
1I
0M
1J
b1001 +
b1001 0
b1001 D
b1001 l
b1001 %"
#122000
0N
b10 2
b10 9
b10 F
1W
0I
1M
1R
0V
0J
1S
b1010 +
b1010 0
b1010 D
b1010 l
b1010 %"
#123000
b11 2
b11 9
b11 F
1N
1I
0M
1J
b1011 +
b1011 0
b1011 D
b1011 l
b1011 %"
#124000
0N
0W
b100 2
b100 9
b100 F
1`
0I
1M
0R
1V
1[
0_
0J
0S
1\
b1100 +
b1100 0
b1100 D
b1100 l
b1100 %"
#125000
b101 2
b101 9
b101 F
1N
1I
0M
1J
b1101 +
b1101 0
b1101 D
b1101 l
b1101 %"
#126000
0N
b110 2
b110 9
b110 F
1W
0I
1M
1R
0V
0J
1S
b1110 +
b1110 0
b1110 D
b1110 l
b1110 %"
#127000
b111 2
b111 9
b111 F
1N
1I
0M
1J
b1111 +
b1111 0
b1111 D
b1111 l
b1111 %"
#128000
1"
b1000 $
b1000 4
b1000 7
b1000 ;
b1000 <
b1000 3
b1000 :
b1000 @
0N
0W
b0 2
b0 9
b0 F
0`
b1000 5
b1000 A
b1000 u
1K
1T
1]
0f
0I
0L
0R
0U
0[
0^
b1000 s
b1000 z
0H
0Q
0Z
1c
0J
0S
0\
0e
b1000 p
b1000 {
b1000 &"
b1000 *
b1000 /
b1000 C
b1000 k
b1000 ""
b1000 $"
b0 +
b0 0
b0 D
b0 l
b0 %"
#128001
1)"
b1000 '"
#129000
1L
1M
1J
b1 +
b1 0
b1 D
b1 l
b1 %"
#130000
0L
0M
1U
1V
0J
1S
b10 +
b10 0
b10 D
b10 l
b10 %"
#131000
1L
1M
1J
b11 +
b11 0
b11 D
b11 l
b11 %"
#132000
0L
0M
0U
0V
1^
1_
0J
0S
1\
b100 +
b100 0
b100 D
b100 l
b100 %"
#133000
1L
1M
1J
b101 +
b101 0
b101 D
b101 l
b101 %"
#134000
0L
0M
1U
1V
0J
1S
b110 +
b110 0
b110 D
b110 l
b110 %"
#135000
1L
1M
1J
b111 +
b111 0
b111 D
b111 l
b111 %"
#136000
b1000 2
b1000 9
b1000 F
1i
0L
0M
0U
0V
0^
0_
1d
0h
0J
0S
0\
1e
b1000 +
b1000 0
b1000 D
b1000 l
b1000 %"
#137000
1L
1M
1J
b1001 +
b1001 0
b1001 D
b1001 l
b1001 %"
#138000
0L
0M
1U
1V
0J
1S
b1010 +
b1010 0
b1010 D
b1010 l
b1010 %"
#139000
1L
1M
1J
b1011 +
b1011 0
b1011 D
b1011 l
b1011 %"
#140000
0L
0M
0U
0V
1^
1_
0J
0S
1\
b1100 +
b1100 0
b1100 D
b1100 l
b1100 %"
#141000
1L
1M
1J
b1101 +
b1101 0
b1101 D
b1101 l
b1101 %"
#142000
0L
0M
1U
1V
0J
1S
b1110 +
b1110 0
b1110 D
b1110 l
b1110 %"
#143000
1L
1M
1J
b1111 +
b1111 0
b1111 D
b1111 l
b1111 %"
#144000
b1001 $
b1001 4
b1001 7
b1001 ;
b1001 <
b1001 3
b1001 :
b1001 @
b0 2
b0 9
b0 F
0i
b1001 5
b1001 A
b1001 u
0K
0U
0V
0^
0_
0d
1h
b1001 s
b1001 z
1H
0J
0S
0\
0e
b1001 p
b1001 {
b1001 &"
b1001 *
b1001 /
b1001 C
b1001 k
b1001 ""
b1001 $"
b0 +
b0 0
b0 D
b0 l
b0 %"
#144001
b1001 '"
#145000
b1 2
b1 9
b1 F
1N
1I
0M
1J
b1 +
b1 0
b1 D
b1 l
b1 %"
#146000
b0 2
b0 9
b0 F
0N
0I
1M
1U
1V
0J
1S
b10 +
b10 0
b10 D
b10 l
b10 %"
#147000
b1 2
b1 9
b1 F
1N
1I
0M
1J
b11 +
b11 0
b11 D
b11 l
b11 %"
#148000
b0 2
b0 9
b0 F
0N
0I
1M
0U
0V
1^
1_
0J
0S
1\
b100 +
b100 0
b100 D
b100 l
b100 %"
#149000
b1 2
b1 9
b1 F
1N
1I
0M
1J
b101 +
b101 0
b101 D
b101 l
b101 %"
#150000
b0 2
b0 9
b0 F
0N
0I
1M
1U
1V
0J
1S
b110 +
b110 0
b110 D
b110 l
b110 %"
#151000
b1 2
b1 9
b1 F
1N
1I
0M
1J
b111 +
b111 0
b111 D
b111 l
b111 %"
#152000
0N
b1000 2
b1000 9
b1000 F
1i
0I
1M
0U
0V
0^
0_
1d
0h
0J
0S
0\
1e
b1000 +
b1000 0
b1000 D
b1000 l
b1000 %"
#153000
b1001 2
b1001 9
b1001 F
1N
1I
0M
1J
b1001 +
b1001 0
b1001 D
b1001 l
b1001 %"
#154000
b1000 2
b1000 9
b1000 F
0N
0I
1M
1U
1V
0J
1S
b1010 +
b1010 0
b1010 D
b1010 l
b1010 %"
#155000
b1001 2
b1001 9
b1001 F
1N
1I
0M
1J
b1011 +
b1011 0
b1011 D
b1011 l
b1011 %"
#156000
b1000 2
b1000 9
b1000 F
0N
0I
1M
0U
0V
1^
1_
0J
0S
1\
b1100 +
b1100 0
b1100 D
b1100 l
b1100 %"
#157000
b1001 2
b1001 9
b1001 F
1N
1I
0M
1J
b1101 +
b1101 0
b1101 D
b1101 l
b1101 %"
#158000
b1000 2
b1000 9
b1000 F
0N
0I
1M
1U
1V
0J
1S
b1110 +
b1110 0
b1110 D
b1110 l
b1110 %"
#159000
b1001 2
b1001 9
b1001 F
1N
1I
0M
1J
b1111 +
b1111 0
b1111 D
b1111 l
b1111 %"
#160000
b1010 $
b1010 4
b1010 7
b1010 ;
b1010 <
b1010 3
b1010 :
b1010 @
0N
b0 2
b0 9
b0 F
0i
b1010 5
b1010 A
b1010 u
1K
0T
0I
0L
0^
0_
0d
1h
b1010 s
b1010 z
0H
1Q
0J
0S
0\
0e
b1010 p
b1010 {
b1010 &"
b1010 *
b1010 /
b1010 C
b1010 k
b1010 ""
b1010 $"
b0 +
b0 0
b0 D
b0 l
b0 %"
#160001
b1010 '"
#161000
1L
1M
1J
b1 +
b1 0
b1 D
b1 l
b1 %"
#162000
b10 2
b10 9
b10 F
1W
0L
0M
1R
0V
0J
1S
b10 +
b10 0
b10 D
b10 l
b10 %"
#163000
1L
1M
1J
b11 +
b11 0
b11 D
b11 l
b11 %"
#164000
b0 2
b0 9
b0 F
0W
0L
0M
0R
1V
1^
1_
0J
0S
1\
b100 +
b100 0
b100 D
b100 l
b100 %"
#165000
1L
1M
1J
b101 +
b101 0
b101 D
b101 l
b101 %"
#166000
b10 2
b10 9
b10 F
1W
0L
0M
1R
0V
0J
1S
b110 +
b110 0
b110 D
b110 l
b110 %"
#167000
1L
1M
1J
b111 +
b111 0
b111 D
b111 l
b111 %"
#168000
0W
b1000 2
b1000 9
b1000 F
1i
0L
0M
0R
1V
0^
0_
1d
0h
0J
0S
0\
1e
b1000 +
b1000 0
b1000 D
b1000 l
b1000 %"
#169000
1L
1M
1J
b1001 +
b1001 0
b1001 D
b1001 l
b1001 %"
#170000
b1010 2
b1010 9
b1010 F
1W
0L
0M
1R
0V
0J
1S
b1010 +
b1010 0
b1010 D
b1010 l
b1010 %"
#171000
1L
1M
1J
b1011 +
b1011 0
b1011 D
b1011 l
b1011 %"
#172000
b1000 2
b1000 9
b1000 F
0W
0L
0M
0R
1V
1^
1_
0J
0S
1\
b1100 +
b1100 0
b1100 D
b1100 l
b1100 %"
