2Curso/EC/Ficheros/microc_tb.vcd
$date
	Thu Nov 21 06:45:27 2024
$end
$version
	Icarus Verilog
$end
$timescale
	10ps
$end
$scope module microc_tb $end
$var wire 1 ! z $end
$var wire 6 " Opcode [5:0] $end
$var reg 3 # Op [2:0] $end
$var reg 1 $ clk $end
$var reg 1 % reset $end
$var reg 1 & s_inc $end
$var reg 1 ' s_inm $end
$var reg 1 ( we3 $end
$var reg 1 ) wez $end
$scope module Camino_Datos $end
$var wire 3 * Op [2:0] $end
$var wire 1 $ clk $end
$var wire 1 % reset $end
$var wire 1 & s_inc $end
$var wire 1 ' s_inm $end
$var wire 1 ( we3 $end
$var wire 1 ) wez $end
$var wire 1 ! z $end
$var wire 8 + wd3 [7:0] $end
$var wire 8 , reg2 [7:0] $end
$var wire 8 - reg1 [7:0] $end
$var wire 10 . new_dir [9:0] $end
$var wire 16 / instruccion [15:0] $end
$var wire 10 0 dir [9:0] $end
$var wire 1 1 cero $end
$var wire 10 2 aux [9:0] $end
$var wire 8 3 S [7:0] $end
$var wire 6 4 Opcode [5:0] $end
$scope module Inst $end
$var wire 16 5 Data [15:0] $end
$var wire 1 $ clk $end
$var wire 10 6 Address [9:0] $end
$upscope $end
$scope module PC $end
$var wire 1 $ clk $end
$var wire 1 % reset $end
$var wire 10 7 D [9:0] $end
$var reg 10 8 Q [9:0] $end
$upscope $end
$scope module PC_inc $end
$var wire 10 9 A [9:0] $end
$var wire 10 : B [9:0] $end
$var wire 10 ; Y [9:0] $end
$upscope $end
$scope module Reg_Esc $end
$var wire 8 < D1 [7:0] $end
$var wire 1 ' s $end
$var wire 8 = Y [7:0] $end
$var wire 8 > D0 [7:0] $end
$upscope $end
$scope module nuevo_PC $end
$var wire 10 ? D0 [9:0] $end
$var wire 10 @ D1 [9:0] $end
$var wire 1 & s $end
$var wire 10 A Y [9:0] $end
$upscope $end
$scope module operacion $end
$var wire 3 B Op [2:0] $end
$var wire 8 C B [7:0] $end
$var wire 8 D A [7:0] $end
$var reg 8 E S [7:0] $end
$var reg 1 1 zero $end
$upscope $end
$scope module registros $end
$var wire 4 F RA1 [3:0] $end
$var wire 4 G RA2 [3:0] $end
$var wire 4 H WA3 [3:0] $end
$var wire 8 I WD3 [7:0] $end
$var wire 1 $ clk $end
$var wire 1 ( we3 $end
$var wire 8 J RD2 [7:0] $end
$var wire 8 K RD1 [7:0] $end
$upscope $end
$scope module z_flag $end
$var wire 1 ) carga $end
$var wire 1 $ clk $end
$var wire 1 1 d $end
$var wire 1 % reset $end
$var reg 1 ! q $end
$upscope $end
$upscope $end
$upscope $end
$enddefinitions $end
#0
$dumpvars
b0 K
b0 J
bx I
b101 H
b0 G
b0 F
bx E
b0 D
b0 C
bx B
b0x01 A
b1 @
b101 ?
bx >
bx =
b0 <
b1 ;
b1 :
b0 9
b0 8
b0x01 7
b0 6
b100000000000101 5
b10000 4
bx 3
b1 2
x1
b0 0
b100000000000101 /
b0x01 .
b0 -
b0 ,
bx +
bx *
x)
x(
x'
x&
1%
1$
bx #
b10000 "
0!
$end
#500
0%
#1000
b0 +
b0 =
b0 I
11
b0 3
b0 >
b0 E
b101 .
b101 7
b101 A
b0 #
b0 *
b0 B
0)
0(
0'
0&
0$
#2000
b10 .
b10 7
b10 A
b100 "
b100 4
b10 H
b10 ?
b110 2
b110 ;
b110 @
b1000000000010 /
b1000000000010 5
b101 0
b101 6
b101 8
b101 9
1$
#3000
b110 .
b110 7
b110 A
0$
1(
1'
1&
#4000
b10 +
b10 =
b10 I
b111 .
b111 7
b111 A
b1 H
b10 G
b10 <
b100001 ?
b111 2
b111 ;
b111 @
b1000000100001 /
b1000000100001 5
b110 0
b110 6
b110 8
b110 9
1$
#5000
0$
#6000
b100 +
b100 =
b100 I
b1000 .
b1000 7
b1000 A
b11 H
b100 G
b100 <
b1000011 ?
b1000 2
b1000 ;
b1000 @
b1000001000011 /
b1000001000011 5
b111 0
b111 6
b111 8
b111 9
1$
#7000
0$
#8000
b10 ,
b10 C
b10 J
b1 +
b1 =
b1 I
b1001 .
b1001 7
b1001 A
b100 H
b1 G
b1 <
b10100 ?
b1001 2
b1001 ;
b1001 @
b1000000010100 /
b1000000010100 5
b1000 0
b1000 6
b1000 8
b1000 9
1$
#9000
0$
#10000
b100 ,
b100 C
b100 J
b100011 +
b100011 =
b100011 I
b1010 .
b1010 7
b1010 A
b101000 "
b101000 4
b10 H
b11 G
b10 F
b100011 <
b1000110010 ?
b1010 2
b1010 ;
b1010 @
b1010001000110010 /
b1010001000110010 5
b1001 0
b1001 6
b1001 8
b1001 9
1$
#11000
01
b100 3
b100 >
b100 E
b100 +
b100 =
b100 I
0$
b10 #
b10 *
b10 B
1)
0'
#12000
b11 +
b11 =
b11 I
b1 ,
b1 C
b1 J
b11 3
b11 >
b11 E
b1011 .
b1011 7
b1011 A
b101100 "
b101100 4
b1 H
b100 G
b1 F
b10100 <
b101000001 ?
b10 -
b10 D
b10 K
b1011 2
b1011 ;
b1011 @
b1011000101000001 /
b1011000101000001 5
b1010 0
b1010 6
b1010 8
b1010 9
1$
#13000
b1 +
b1 =
b1 I
b1 3
b1 >
b1 E
0$
b11 #
b11 *
b11 B
#14000
b0 +
b0 =
b0 I
b0 ,
b0 C
b0 J
11
b0 3
b0 >
b0 E
b1100 .
b1100 7
b1100 A
b10010 "
b10010 4
b1001 H
b0 G
b1000 F
b10000000 <
b1001 ?
b0 -
b0 D
b0 K
b1100 2
b1100 ;
b1100 @
b100100000001001 /
b100100000001001 5
b1011 0
b1011 6
b1011 8
b1011 9
1$
#15000
b1001 .
b1001 7
b1001 A
0$
b0 #
b0 *
b0 B
0)
0(
0&
#16000
b100 +
b100 =
b100 I
01
b100 3
b100 >
b100 E
b100 ,
b100 C
b100 J
b100 -
b100 D
b100 K
b1000110010 .
b1000110010 7
b1000110010 A
b101000 "
b101000 4
b10 H
b11 G
b10 F
b100011 <
b1000110010 ?
b1010 2
b1010 ;
b1010 @
b1010001000110010 /
b1010001000110010 5
b1001 0
b1001 6
b1001 8
b1001 9
1$
#17000
b1000 +
b1000 =
b1000 I
b1000 3
b1000 >
b1000 E
b1010 .
b1010 7
b1010 A
0$
b10 #
b10 *
b10 B
1)
1(
1&
#18000
b10 +
b10 =
b10 I
b1 ,
b1 C
b1 J
b10 3
b10 >
b10 E
b1011 .
b1011 7
b1011 A
b101100 "
b101100 4
b1 H
b100 G
b1 F
b10100 <
b101000001 ?
b1 -
b1 D
b1 K
b1011 2
b1011 ;
b1011 @
b1011000101000001 /
b1011000101000001 5
b1010 0
b1010 6
b1010 8
b1010 9
1$
#19000
b0 +
b0 =
b0 I
11
b0 3
b0 >
b0 E
0$
b11 #
b11 *
b11 B
#20000
b0 +
b0 =
b0 I
b0 ,
b0 C
b0 J
11
b0 3
b0 >
b0 E
b1100 .
b1100 7
b1100 A
b10010 "
b10010 4
b1001 H
b0 G
b1000 F
b10000000 <
b1001 ?
b0 -
b0 D
b0 K
b1100 2
b1100 ;
b1100 @
b100100000001001 /
b100100000001001 5
b1011 0
b1011 6
b1011 8
b1011 9
1!
1$
#21000
0$
b0 #
b0 *
b0 B
0)
0(
#22000
b1101 .
b1101 7
b1101 A
b10000 "
b10000 4
b1100 H
b0 F
b0 <
b1100 ?
b1101 2
b1101 ;
b1101 @
b100000000001100 /
b100000000001100 5
b1100 0
b1100 6
b1100 8
b1100 9
1$
#23000
b1100 .
b1100 7
b1100 A
0$
0&
